module gitlab.com/banderovets/gitea-sugar

go 1.21

require (
	github.com/aws/aws-sdk-go-v2 v1.24.0
	github.com/aws/aws-sdk-go-v2/feature/s3/manager v1.15.7
	github.com/aws/aws-sdk-go-v2/service/s3 v1.47.5
	github.com/kelseyhightower/envconfig v1.4.0
)

require (
	github.com/aws/aws-sdk-go-v2/aws/protocol/eventstream v1.5.4 // indirect
	github.com/aws/aws-sdk-go-v2/internal/configsources v1.2.9 // indirect
	github.com/aws/aws-sdk-go-v2/internal/endpoints/v2 v2.5.9 // indirect
	github.com/aws/aws-sdk-go-v2/internal/v4a v1.2.9 // indirect
	github.com/aws/aws-sdk-go-v2/service/internal/accept-encoding v1.10.4 // indirect
	github.com/aws/aws-sdk-go-v2/service/internal/checksum v1.2.9 // indirect
	github.com/aws/aws-sdk-go-v2/service/internal/presigned-url v1.10.9 // indirect
	github.com/aws/aws-sdk-go-v2/service/internal/s3shared v1.16.9 // indirect
	github.com/aws/smithy-go v1.19.0 // indirect
	github.com/jmespath/go-jmespath v0.4.0 // indirect
)
